{
    "sceneID": "MetalRoughSpheres",
    "skybox": {"id": "barcelona",
               "hdr": true,
               "resolution": 512
    },
    "models": [{
        "mesh": "MetalRoughSpheres.gltf",
        "IBL": true,
        "position": [0.0, 0.0, 0.0],
        "rotation": [0.0, 1.0, 0.0, 0.0],
        "scaling" : [1.0, 1.0, 1.0]
        }],
    "camera":{
        "speed": 0.05,
        "mouseSens": 0.05,
        "fov": 60.0,
        "nearPlane": 1.0,
        "farPlane": 300.0,
        "position": [0.0, 1.0, 0.0],
        "target": [1.0, 1.0, 0.0]
    },
    "directionalLight": {
        "direction": [0.0, -5.0, 1.333],
        "distance": 100.0,
        "color": [1.0, 1.0, 1.0],
        "strength": 1.0,
        "zNear": 1.0,
        "zFar": 700.0,
        "orthoSize": 100.0,
        "shadowRes": 2048
    },
    "pointLights":[{
        "position": [-110.0, 14.0, -41.0],
        "color": [1.0, 0.0, 0.0],
        "strength": 1.0,
        "zNear": 0.1,
        "zFar": 100.0,
        "shadowRes": 2048
    },
    {
        "position": [110.0, 14.0, -41.0],
        "color": [0.0, 1.0, 0.0],
        "strength": 1.0,
        "zNear": 0.1,
        "zFar": 100.0,
        "shadowRes": 2048
    },
    {
        "position": [110, 16.0, 41.0],
        "color": [0.0, 0.0, 1.0],
        "strength": 1.0,
        "zNear": 0.1,
        "zFar": 100.0,
        "shadowRes": 2048
    },
    {
        "position": [-110.0, 16.0, 41.0],
        "color": [1.0, 0.0, 1.0],
        "strength": 1.0,
        "zNear": 0.1,
        "zFar": 100.0,
        "shadowRes": 2048
    }]
}
